{
    "santos":[
        {
            "id": 1,
            "name": "Seiya",
            "constelation": "Pegaso"
        },
        {
            "id": 2,
            "name": "Shiriu",
            "constelation": "Dragón"
        },
        {
            "id": 3,
            "name": "Hyoga",
            "constelation": "Cisne"
        },
        {
            "id": 4,
            "name": "Shun",
            "constelation": "Andrómeda"
        },
        {
            "id": 5,
            "name": "Ikki",
            "constelation": "Fenix"
        }
    ]
}